<?xml version="1.0" encoding="UTF-8" standalone="no"?>
<svg width="31px" height="31px" viewBox="0 0 31 31" version="1.1" xmlns="http://www.w3.org/2000/svg" xmlns:xlink="http://www.w3.org/1999/xlink">
    <!-- Generator: Sketch 39 (31667) - http://www.bohemiancoding.com/sketch -->
    <title>ic_megaphone</title>
    <desc>Created with Sketch.</desc>
    <defs></defs>
    <g id="Page-1" stroke="none" stroke-width="1" fill="none" fill-rule="evenodd">
        <g id="Queue-L-Page" transform="translate(-704.000000, -952.000000)">
            <g id="ic_megaphone" transform="translate(700.000000, 948.000000)">
                <g>
                    <path d="M29.25,22.9435375 L29.25,16.0567875 C30.875,16.0641 32.488625,17.6046 32.488625,19.5001625 C32.488625,21.3949125 30.875,22.936225 29.25,22.9435375 L29.25,22.9435375 Z M27.625,30.3632875 L13,23.166975 L13,15.6277875 L27.625,8.5501 L27.625,30.3632875 Z M6.5,22.7501625 L11.375,22.7501625 L11.375,16.2501625 L6.5,16.2501625 L6.5,22.7501625 Z M34.113625,19.5001625 C34.113625,16.709225 31.6875,14.4382875 29.25,14.430975 L29.25,4.8751625 L27.625,4.8751625 L27.625,6.73985 L11.375,14.6251625 L4.875,14.6251625 L4.875,24.3751625 L8.125,24.3751625 L8.125,29.2501625 L9.75,29.2501625 L9.75,24.3751625 L11.7544375,24.3751625 L27.625,32.1800375 L27.625,34.1251625 L29.25,34.1251625 L29.25,24.56935 C31.6875,24.5620375 34.113625,22.2911 34.113625,19.5001625 L34.113625,19.5001625 Z" fill="#39C2C9"></path>
                    <rect id="Rectangle-15" x="0" y="0" width="39" height="39"></rect>
                </g>
            </g>
        </g>
    </g>
</svg>